/Users/jayashree/tutorial/spring-hibernate-example/src/main/java/com/mbcc/tutorial/ResidentManagementService.java
/Users/jayashree/tutorial/spring-hibernate-example/src/main/java/com/mbcc/tutorial/persistence/DataStoreDao.java
/Users/jayashree/tutorial/spring-hibernate-example/src/main/java/com/mbcc/tutorial/dto/Building.java
/Users/jayashree/tutorial/spring-hibernate-example/src/main/java/com/mbcc/tutorial/MbccApplication.java
/Users/jayashree/tutorial/spring-hibernate-example/src/main/java/com/mbcc/tutorial/dto/ResidentInfo.java
